<?xml version="1.0" encoding="utf-8"?>
<!-- Generator: Adobe Illustrator 22.1.0, SVG Export Plug-In . SVG Version: 6.00 Build 0)  -->
<svg version="1.1" id="Capa_1" xmlns="http://www.w3.org/2000/svg" xmlns:xlink="http://www.w3.org/1999/xlink" x="0px" y="0px"
	 viewBox="0 0 161 134.5" style="enable-background:new 0 0 161 134.5;" xml:space="preserve">
<style type="text/css">
	.st0{fill:#31B2E1;}
</style>
<g>
	<g>
		<g>
			<path class="st0" d="M120.1,37.8c-1.5,0-2.7,1.2-2.7,2.7s1.2,2.7,2.7,2.7s2.7-1.2,2.7-2.7S121.6,37.8,120.1,37.8z"/>
		</g>
	</g>
	<g>
		<g>
			<path class="st0" d="M142,26.9h-30l-8.7-17.3C101.9,6.7,99.1,5,95.9,5H64.4c-3.1,0-5.9,1.8-7.3,4.5l-8.7,17.3H43v-2.7
				c0-4.5-3.7-8.2-8.2-8.2h-5.5c-4.5,0-8.2,3.7-8.2,8.2v2.7h-2.7c-4.5,0-8.2,3.7-8.2,8.2c0,7.4,0,73.7,0,76.6c0,4.5,3.7,8.2,8.2,8.2
				H142c4.5,0,8.2-3.7,8.2-8.2c0-7.4,0-73.7,0-76.6C150.2,30.6,146.5,26.9,142,26.9z M62,12c0.5-0.9,1.4-1.5,2.4-1.5h31.5
				c1,0,2,0.6,2.4,1.5l7.4,14.9H54.5L62,12z M26.6,24.1c0-1.5,1.2-2.7,2.7-2.7h5.5c1.5,0,2.7,1.2,2.7,2.7v2.7H26.6V24.1z M15.7,54.2
				h34.6c-3.6,5.7-5.6,12.3-5.6,19.2s2,13.5,5.6,19.1H15.7V54.2z M80.2,43.3c16.4,0,30.1,13.3,30.1,30.1c0,16.7-13.6,30.1-30.1,30.1
				c-16.5,0-30.1-13.3-30.1-30.1S63.7,43.3,80.2,43.3z M144.7,111.6c0,1.5-1.2,2.7-2.7,2.7H18.4c-1.5,0-2.7-1.2-2.7-2.7V98h38.9
				c6.7,7,15.9,10.9,25.6,10.9c9.7,0,18.9-4,25.6-10.9h38.9V111.6z M144.7,92.5h-34.6c3.6-5.7,5.6-12.3,5.6-19.1s-2-13.5-5.6-19.1
				h34.6V92.5z M144.7,48.7h-38.9c-6.7-7-15.9-10.9-25.6-10.9c-9.7,0-18.9,4-25.6,10.9H15.7V35.1c0-1.5,1.2-2.7,2.7-2.7
				c2.5,0,119.7,0,123.6,0c1.5,0,2.7,1.2,2.7,2.7V48.7z"/>
		</g>
	</g>
	<g>
		<g>
			<path class="st0" d="M88.4,15.9H72c-1.5,0-2.7,1.2-2.7,2.7s1.2,2.7,2.7,2.7h16.4c1.5,0,2.7-1.2,2.7-2.7S89.9,15.9,88.4,15.9z"/>
		</g>
	</g>
	<g>
		<g>
			<path class="st0" d="M80.2,48.7c-13.6,0-24.6,11-24.6,24.6S66.6,98,80.2,98s24.6-11,24.6-24.6S93.8,48.7,80.2,48.7z M80.2,92.5
				C69.6,92.5,61,83.9,61,73.3s8.6-19.1,19.1-19.1s19.1,8.6,19.1,19.1S90.7,92.5,80.2,92.5z"/>
		</g>
	</g>
	<g>
		<g>
			<path class="st0" d="M80.2,59.7c-7.5,0-13.7,6.1-13.7,13.7c0,1.5,1.2,2.7,2.7,2.7s2.7-1.2,2.7-2.7c0-4.5,3.7-8.2,8.2-8.2
				c1.5,0,2.7-1.2,2.7-2.7S81.7,59.7,80.2,59.7z"/>
		</g>
	</g>
	<g>
		<g>
			<path class="st0" d="M136.5,37.8H131c-1.5,0-2.7,1.2-2.7,2.7s1.2,2.7,2.7,2.7h5.5c1.5,0,2.7-1.2,2.7-2.7S138,37.8,136.5,37.8z"/>
		</g>
	</g>
</g>
</svg>
