<?xml version="1.0" encoding="utf-8"?>
<!-- Generator: Adobe Illustrator 22.1.0, SVG Export Plug-In . SVG Version: 6.00 Build 0)  -->
<svg version="1.1" id="Слой_1" xmlns="http://www.w3.org/2000/svg" xmlns:xlink="http://www.w3.org/1999/xlink" x="0px" y="0px"
	 viewBox="0 0 421.2 88.2" style="enable-background:new 0 0 421.2 88.2;" xml:space="preserve">
<style type="text/css">
	.st0{fill:#31B2E1;}
	.st1{fill:#134579;}
</style>
<g>
	<path class="st0" d="M3.6,17.1c4.6,0.1,12.5,1.6,15.5,9.8c0,0,6-10.8,19.9-10.8c8.8,0,15.5,3.9,19,10.7C64,19.8,71,16,80.2,16
		c14.2,0,22.8,8.6,22.8,24.8v40.4c0,1.9-1.6,3.5-3.5,3.5H87.4c-1.9,0-3.5-1.6-3.5-3.5V47.1c0-9.1-4-13.7-11.2-13.7
		c-7.2,0-11.6,4.7-11.6,13.7v34.1c0,1.9-1.6,3.5-3.5,3.5H45.4c-1.9,0-3.5-1.6-3.5-3.5V47.1c0-9.1-4-13.7-11.2-13.7
		c-7.2,0-11.6,4.7-11.6,13.7v34.1c0,1.9-1.6,3.5-3.5,3.5H3.5c-1.9,0-3.5-1.6-3.5-3.5V20.6C0,18.6,1.6,17,3.6,17.1z"/>
	<path class="st0" d="M113.1,17.3h5.1c7.2,0,13.4,4.8,15.3,11.8l7.7,29.2l10.9-35.3c1.1-3.5,4.3-5.9,7.9-5.9h4.3
		c3.6,0,6.8,2.3,7.8,5.8l11,35.5l7.7-28.6c2-7.3,8.6-12.4,16.2-12.4h4c1,0,1.8,1,1.5,2l-19.7,63.6c-0.4,1.4-1.8,2.4-3.3,2.4h-12.2
		c-1.5,0-2.8-1-3.3-2.4l-12.2-39l-12.5,39c-0.5,1.4-1.8,2.4-3.3,2.4h-12.1c-1.5,0-2.8-1-3.3-2.4l-19.4-63.5
		C111.3,18.3,112,17.3,113.1,17.3z"/>
	<path class="st0" d="M226.8,65.6v-32h-8.7c-0.7,0-1.3-0.7-1.1-1.4c0.6-2.6,2-8.1,2.5-9.9c1.4-4.7,4.4-5,5.7-5.1
		c0.9-0.1,1.6,0,1.6,0v-4C226.8,5.9,232.7,0,240,0h4.5c0.8,0,1.4,0.6,1.4,1.4v15.8h12.5c1.8,0,3.3,1.5,3.3,3.3v9.7
		c0,1.8-1.5,3.3-3.3,3.3H246v28.8c0,4.4,1.9,6.5,6.2,6.5c2.1,0,4-0.4,5.9-0.9c3.7-1,3.6,2.6,3.6,2.6l0,9.3c0,1.3-0.7,2.5-1.8,3
		c-3.6,1.8-7.8,2.9-13.3,2.9C234.8,85.9,226.8,81.2,226.8,65.6z"/>
	<path class="st0" d="M284,64.6h0.3c5.6,0,10.1,4.5,10.1,10.1v0c0,5.6-4.5,10.1-10.1,10.1H284c-5.6,0-10.1-4.5-10.1-10.1v0
		C273.9,69.1,278.4,64.6,284,64.6z"/>
	<path class="st1" d="M311.1,17.3h3.9c7.5,0,13.6,6.1,13.6,13.6v0c3.2-7.6,8-13.3,15.9-14.5c4.6-0.7,7.5,0.1,8.4,0.3
		c1.1,0.2,4.4,1.2,2.6,5.3L351.3,32c0,0-0.5,3.5-5.8,4.3c-10.6,1.4-17,9-17,23.6v21.5c0,1.9-1.5,3.4-3.4,3.4h-12.3
		c-1.9,0-3.4-1.5-3.4-3.4V18.9C309.5,18,310.2,17.3,311.1,17.3z"/>
	<path class="st1" d="M360.3,60.9V30c0-7.1,5.7-12.8,12.8-12.8h3c1.9,0,3.4,1.5,3.4,3.4v34.3c0,9.1,4.3,13.7,11.6,13.7
		c7.3,0,12-4.7,12-13.7V30.1c0-7.1,5.7-12.8,12.8-12.8h2.9c1.9,0,3.4,1.5,3.4,3.4v37.4c0,21.2-16.5,28-30.9,27.9
		C376.5,85.9,360.3,76.4,360.3,60.9z"/>
</g>
</svg>
