<svg xmlns="http://www.w3.org/2000/svg" width="15" height="15" viewBox="0 0 15 15" fill="none">
<path d="M14.674 6.54193C14.9692 6.25419 15.0735 5.83189 14.9461 5.43932C14.8185 5.04676 14.486 4.76653 14.0775 4.70706L10.4456 4.17933C10.2909 4.1568 10.1572 4.05979 10.0881 3.91952L8.46441 0.628809C8.28209 0.25907 7.91205 0.0292969 7.49966 0.0292969C7.08757 0.0292969 6.71753 0.25907 6.53522 0.628809L4.91119 3.91982C4.8421 4.06009 4.70814 4.1571 4.55346 4.17963L0.921545 4.70736C0.51336 4.76653 0.180565 5.04706 0.0529129 5.43963C-0.0744384 5.83219 0.0297854 6.25449 0.325036 6.54224L2.95286 9.10368C3.06489 9.21301 3.11625 9.3704 3.08982 9.52418L2.46988 13.1411C2.41492 13.4595 2.49842 13.7691 2.70446 14.0133C3.02464 14.3939 3.58361 14.5098 4.03054 14.2749L7.2786 12.5671C7.41436 12.4959 7.58526 12.4965 7.72072 12.5671L10.9691 14.2749C11.1271 14.3581 11.2956 14.4002 11.4695 14.4002C11.787 14.4002 12.0879 14.259 12.2949 14.0133C12.5012 13.7691 12.5844 13.4589 12.5294 13.1411L11.9092 9.52418C11.8828 9.3701 11.9341 9.21301 12.0462 9.10368L14.674 6.54193Z" fill="#B9C1CA"/>
<g clip-path="url(#clip0)">
<path d="M14.674 6.54193C14.9692 6.25419 15.0735 5.83189 14.9461 5.43932C14.8185 5.04676 14.486 4.76653 14.0775 4.70706L10.4456 4.17933C10.2909 4.1568 10.1572 4.05979 10.0881 3.91952L8.46441 0.628809C8.28209 0.25907 7.91205 0.0292969 7.49966 0.0292969C7.08757 0.0292969 6.71753 0.25907 6.53522 0.628809L4.91119 3.91982C4.8421 4.06009 4.70814 4.1571 4.55346 4.17963L0.921545 4.70736C0.51336 4.76653 0.180565 5.04706 0.0529129 5.43963C-0.0744384 5.83219 0.0297854 6.25449 0.325036 6.54224L2.95286 9.10368C3.06489 9.21301 3.11625 9.3704 3.08982 9.52418L2.46988 13.1411C2.41492 13.4595 2.49842 13.7691 2.70446 14.0133C3.02464 14.3939 3.58361 14.5098 4.03054 14.2749L7.2786 12.5671C7.41436 12.4959 7.58526 12.4965 7.72072 12.5671L10.9691 14.2749C11.1271 14.3581 11.2956 14.4002 11.4695 14.4002C11.787 14.4002 12.0879 14.259 12.2949 14.0133C12.5012 13.7691 12.5844 13.4589 12.5294 13.1411L11.9092 9.52418C11.8828 9.3701 11.9341 9.21301 12.0462 9.10368L14.674 6.54193Z" fill="#31b2e1"/>
</g>
<defs>
<clipPath id="clip0">
<rect width="7.5" height="15" fill="#31b2e1"/>
</clipPath>
</defs>
</svg>